1 500000 449
962589 976244 458
547640 784528 509
800960 911131 525
255922 424195 449
556832 896804 525
717999 932690 525
97596 537277 470
488162 637117 509
887374 995161 507
544918 852614 525
531020 992546 525
222710 322458 443
661186 907733 525
858690 993702 507
404391 703405 509
898040 917869 476
633192 783950 504
352144 557087 470
172310 464337 449
835919 842094 525
604572 641543 509
986469 998134 440
900686 991045 507
476677 975801 525
303130 974882 525
164887 512110 470
111386 789983 509
626791 811949 504
699787 865571 525
891928 952161 507
513990 743732 509
856403 919178 476
776737 795804 437
39156 102519 351
365886 883403 525
240340 494139 449
804552 875383 525
19925 251456 443
721805 961090 525
944496 957257 414
795358 974526 525
39991 77300 351
302168 801151 509
466903 471154 413
405808 990817 525
651126 905435 525
276112 790072 509
87670 504945 449
9463 687850 509
75329 603411 470
771739 997018 525
796488 908751 525
489275 792956 509
38247 403326 443
633069 978824 525
721574 733049 411
688784 954351 525
681622 744785 504
780995 834188 468
986862 991489 396
392150 799120 509
494129 705993 509
713941 820780 468
816733 964489 525
455674 518458 470
190662 535130 470
786543 949620 525
420971 916002 525
967487 978827 458
271524 548980 470
681305 904209 525
239062 837564 509
643400 859899 525
272672 438357 449
72495 829862 509
654827 851767 525
980869 983864 427
456735 683300 509
306430 471655 449
508191 516110 470
501816 917991 525
282608 377341 441
816571 928001 525
793988 940605 525
306915 882908 525
388574 523077 470
347883 574368 470
706544 996443 525
676208 701689 442
374416 807045 509
351490 692184 509
722428 904022 525
411203 586345 470
273361 308666 389
208799 977183 525
429588 820805 509
841331 870887 419
548083 882971 525
252115 689035 509
76289 993987 525
132329 659868 509
621237 700513 509
292995 424987 449
150742 374802 443
805265 867543 525
983938 986040 427
845188 966676 507
287522 906884 525
986434 999149 440
433989 693378 509
430116 813346 509
587373 920327 525
326311 331764 353
288415 315274 389
287910 706897 509
110981 931147 525
879696 944321 507
873309 989558 507
127516 452114 449
532861 971402 525
361439 761973 509
109948 645305 509
386307 940514 525
401035 711986 509
357522 587702 470
492421 919130 525
153159 258865 443
500277 991030 525
55444 792241 509
216559 993935 525
506665 698857 509
228206 718841 509
983560 987522 427
649170 869212 525
330982 344938 366
453485 471398 444
937927 998638 507
877510 914363 476
543897 921695 525
951254 968774 414
557144 969780 525
697947 935922 525
568517 985588 525
740538 996300 525
923918 951382 507
818603 958027 525
321397 701472 509
169449 280416 443
727382 997379 525
2246 386048 443
237244 989168 525
253616 782478 509
56363 450137 449
304192 982828 525
14777 319358 443
188632 726126 509
840388 912112 476
109641 686656 509
111996 164947 383
701633 960324 525
943139 954302 414
708509 731162 411
102952 508310 449
124158 447764 449
414265 980940 525
331665 902240 525
874070 992387 507
603626 753370 509
600464 650889 509
974083 974879 334
232400 819951 509
570100 674453 509
351927 686044 509
196228 543433 470
222961 452040 449
53809 281622 443
389336 739599 509
722205 932110 525
330954 517906 470
506235 840565 525
865062 873292 432
762385 835086 468
649209 705656 504
251842 434125 449
554871 911730 525
206496 271197 443
254231 678066 509
867879 949415 507
751233 870106 525
622577 796710 509
945855 979190 458
169367 945752 525
647977 882738 525
29805 47670 324
103546 921564 525
230733 865087 525
607885 953177 525
73512 432594 449
28368 255979 443
962893 999651 458
638378 947161 525
915376 981885 507
334743 849310 525
78151 644818 509
251587 302270 407
999361 999706 290
419368 942132 525
485151 777071 509
914666 929596 476
575368 685882 509
965133 999709 458
369862 950159 525
232710 753310 509
752056 857203 525
572059 963714 525
278667 988356 525
461765 618716 470
573320 629659 509
75036 961247 525
373496 649527 509
645360 995048 525
618162 673221 509
982616 996516 427
568855 786881 509
743153 906768 525
85412 307311 443
761440 898872 525
945287 976888 458
257388 363928 441
559156 781258 509
126520 315000 443
991106 996631 365
532860 574974 452
501600 986956 525
755576 904559 525
480231 897553 525
13926 123344 354
56335 202034 383
177636 647335 509
107298 133098 349
415066 581678 470
708082 802315 468
996735 998779 440
375050 482446 449
788386 814402 468
907513 969576 507
180311 958660 525
962844 996773 458
616727 928643 525
77431 311281 443
1 1 1
1 2 2
1 3 8
1 4 8
1 5 8
1 10 20
10 10 7
9 9 20
5 5 6
