764289 275853 509
855388 269127 525
505949 422011 444
722277 611819 509
203286 407009 443
520515 294549 470
135111 397774 443
377560 966931 525
860937 133734 525
31344 512882 470
293769 36697 443
974407 375786 525
299926 652637 509
858214 557319 525
91736 981610 525
219148 298731 443
109934 626281 470
106645 619336 470
467054 689207 509
128979 971547 525
339385 661759 509
912559 844275 476
675003 749984 504
76327 514220 470
129562 514917 470
821481 154929 509
219367 19667 386
233327 809264 509
25605 870330 525
132943 364957 443
485065 521961 470
924030 152213 525
475984 64212 449
265449 483606 449
435215 256753 449
810327 796883 406
522281 365393 470
705824 710136 349
450066 819510 509
127442 572169 470
437640 44823 449
832733 465662 509
541949 421674 470
881655 129603 525
848898 910351 476
618063 561615 447
839486 457383 525
552146 463907 470
170736 379655 443
661458 945061 525
713050 155110 509
410694 258644 449
770073 209638 509
789076 730478 468
486511 557895 470
173772 951006 525
799232 723963 468
909919 557584 525
735007 893725 525
413696 540694 470
435176 754438 509
62838 690360 509
783809 308939 509
385542 852548 525
554894 113206 470
116200 540952 470
963771 582192 525
565847 33838 470
577272 336432 470
333479 447879 449
225059 327683 443
88325 230611 386
184412 811360 509
615187 510461 470
535741 264525 470
667317 691607 398
569741 550373 421
805100 270088 509
504122 855373 525
822877 90268 509
524880 211242 470
111749 43277 354
86057 431120 449
654248 775320 504
720962 869255 525
59117 690420 509
263866 12628 443
137154 4662 354
440184 750957 509
198186 7830 383
491358 606608 470
601708 272091 470
671926 629936 442
317180 213663 443
928786 428074 525
104311 392634 443
699380 592048 509
674322 997697 525
88249 675353 509
341580 825296 509
142210 12480 354
580459 659960 509
268910 911031 525
365155 989034 525
527559 693696 509
441519 917977 525
427765 651636 509
490914 16147 449
673627 924562 525
811094 487616 509
457867 232565 449
93782 415690 449
26298 239277 443
274824 147774 443
286133 681549 509
691596 702003 442
648621 37522 509
793344 726480 468
679027 259715 509
586232 655181 509
697544 311445 509
773367 488609 509
907223 336074 525
769294 986688 525
27290 476946 449
361504 482908 449
8735 861520 525
80704 672805 509
302296 881055 525
889210 426318 525
942394 383625 525
283016 87679 443
568775 35856 470
625013 793174 509
908764 421224 525
817673 213529 509
538236 973145 525
977422 856933 507
738375 444453 509
994399 806019 525
307126 508749 449
201166 570873 470
184482 224855 386
172050 167932 334
714782 430178 509
189719 109727 383
480617 519307 470
337247 876082 525
48291 700815 509
844513 103845 525
199467 544557 470
693835 453195 509
822274 749484 468
617675 629494 509
416813 177052 449
190132 335420 443
800353 122836 509
299993 152718 443
668268 370604 509
198929 778266 509
837605 448483 509
880955 121769 525
641823 431750 509
851756 932346 476
354924 686291 509
337442 5783 443
951222 602159 525
477434 93148 449
100527 190989 383
926126 363890 525
759845 577683 509
279836 300595 389
772646 875852 525
177237 306804 443
25524 617902 470
981711 467867 525
341319 446726 449
546071 769863 509
353463 911727 525
39776 658746 509
313214 750834 509
185971 642849 509
577882 928229 525
423268 847852 525
591889 363029 470
119209 75849 354
207909 332632 443
678511 689782 398
631673 771019 504
915897 15728 525
160480 611385 470
267282 848710 525
805343 491167 509
93059 837020 509
570392 158445 470
154686 6506 375
303086 233351 407
558659 138219 470
80462 174819 383
800842 9931 509
966479 245873 525
11356 93604 351
301154 159166 443
190402 345093 443
207323 262475 443
705265 214203 509
297170 484342 449
475826 556796 470
323688 716448 509
518720 333345 470
958263 715257 525
693401 84576 509
867302 420527 525
734136 352336 509
550900 471484 470
554245 51574 470
897500 406898 525
972123 528458 525
547817 164346 470
75265 162824 383
455912 287918 449
824889 278590 509
682323 28948 509
258734 473298 449
734478 430957 509
13286 79299 351
394669 134180 443
481049 129891 449
341483 404332 441
833289 795804 468
821513 37959 509
255465 950854 525
607072 424451 470
264105 769363 509
424472 945647 525
307864 912247 525
450574 538972 470
