789240 721859 468
184283 911055 525
415424 354603 449
294580 734872 509
757915 280538 509
811821 250283 509
967206 200311 525
231408 57662 443
990753 787109 525
101405 575752 470
417673 794219 509
276810 669176 509
175109 50474 383
765230 473677 509
779939 467275 509
763233 427823 509
328360 819070 509
299142 567524 470
942698 833342 525
612196 482502 470
420492 427151 418
410789 514749 470
915251 509795 525
926354 315044 525
79566 258032 443
415187 625842 470
123495 521998 470
909155 651521 525
178407 107094 383
842877 229807 525
311646 412484 449
914718 938589 476
618268 358009 470
816938 518094 509
969107 129488 525
458487 177318 449
951043 542281 525
659323 473406 509
48355 623634 470
140436 449635 449
815841 80848 509
871895 777865 525
489031 595789 470
570474 417664 470
774968 653087 504
377987 889879 525
198645 924876 525
395852 837348 509
251965 791207 509
460694 746549 509
348145 245805 441
623451 294920 470
282413 422666 449
124788 339113 443
119387 988450 525
956668 886068 507
285828 905755 525
357781 441029 449
24039 356203 443
803094 862454 525
677282 874227 525
496430 159218 449
258777 726250 509
828830 49618 509
133959 826261 509
219254 409221 443
496125 721982 509
591775 861154 525
18596 748018 509
856 543636 470
484706 849510 525
972571 193960 525
570518 567411 377
34722 49054 324
722115 34534 509
399596 149626 443
189492 545210 470
754362 336590 509
408598 301565 441
991848 142718 525
506100 456899 444
981475 669368 525
197913 816152 509
894181 85548 525
593316 907569 525
955857 33559 525
770489 442332 509
656368 245316 509
144881 175752 383
148903 819599 509
425337 354455 449
255863 901805 525
174838 471222 449
143041 893022 525
146171 78938 375
121960 620555 470
867154 614360 525
273609 167163 443
59815 31366 340
279840 142037 443
252082 399722 441
894170 904185 401
477666 467616 413
906944 630976 525
218074 180417 386
550993 253517 470
159646 76556 383
203420 264294 443
513595 495370 470
201009 338204 443
736702 361076 509
704247 830712 504
105681 562497 470
235698 384125 441
648692 164396 509
717853 242712 509
979497 636619 525
604171 44509 470
680425 674879 385
734055 864892 525
977918 220742 525
501714 175621 449
564905 60681 470
3129 213259 383
363952 501121 449
97522 512534 470
848255 183359 525
388143 824485 509
429940 424655 374
87637 906643 525
2981 664150 509
252241 619402 470
637085 902516 525
243933 435336 449
50730 104175 351
85125 826974 509
594520 206994 470
801173 725366 468
294026 868154 525
694525 841187 525
921241 801800 525
288696 331552 384
515958 320380 470
159157 753594 509
800264 69998 509
378184 807349 509
719555 607786 509
769942 636547 504
466862 738639 509
943331 55215 525
965116 836152 525
402042 322540 441
245056 543437 470
45645 908437 525
690678 672199 398
755816 724173 424
866246 414658 525
337505 887997 525
627072 389296 509
574282 269374 470
372358 382033 423
783098 796159 468
95755 777804 509
699898 231871 509
610830 645935 509
667411 585374 509
44468 844752 525
547606 581731 421
451652 27553 449
424444 127828 449
480497 10270 449
759044 553173 509
104172 468499 449
39591 490845 449
684126 303256 509
363689 707121 509
442973 99595 449
416980 397345 449
12159 218905 386
156567 470654 449
678245 990863 525
97929 23259 351
228269 868156 525
313264 352142 441
752065 433638 509
492366 309154 449
169746 987805 525
993536 857982 507
873842 666561 525
502638 458533 444
493829 726653 509
910304 131440 525
703343 313889 509
776058 319548 509
621275 3775 470
573432 7971 470
804761 5482 509
960190 831423 525
48238 343405 443
831794 765064 468
429656 557198 470
523969 671271 509
131163 270504 443
445270 151817 449
348547 3832 443
522564 889223 525
358985 609285 470
958676 299512 525
213168 175627 373
181168 380198 443
607394 703661 509
483020 533506 470
120956 21738 354
693227 660017 442
148319 979995 525
540577 61961 470
150255 79269 375
228735 503844 449
396430 422419 449
872992 817801 525
696827 715137 504
684252 706658 504
292954 295360 358
92974 667776 509
369471 433016 449
884251 201877 525
511959 688909 509
560770 517057 452
714875 404251 509
126621 103554 354
582967 446804 470
763636 281962 509
311543 804458 509
617945 251129 470
423573 825828 509
48243 750506 509
514634 193795 470
13504 851076 525
752361 675479 504
89725 587247 470
251962 5939 443
701722 351443 509
522712 318902 470
902473 63585 525
714367 851299 525
708438 935024 525
801072 147756 509
587632 786710 509
163760 944185 525
180531 659358 509
